Visual Analytics - Take-home Ex 01
…
We have 12 rows that have transactions containing more than 1 unit sold, and a check on the Address shows that there are 5 sales that are en bloc cases which should be remove from the analysis. These en bloc cases are likely sales to companies for purpose of redevelopment rather than individual purchasers. See this link on the Meyer Park en bloc transaction. Otherwise, those 7 cases of transactions with more than one unit sold should be included as are likely the cases of purchase of multiple units or the purchase of multiple adjacent plots of land.

2.3.1 Removing the en bloc sales (irrelevant data)

For the follow code chunk, we aim to remove all the enbloc sales, including the 5 transactions that we have found in section 2.3. While we have no idea if there are more than 5 cases of en bloc sales, the follow code chunk will effectively remove all the rows with the string “ENBLOC” in Address column.

df.c <- df %>%
  filter(!grepl('ENBLOC', df$Address))
df.c

# A tibble: 26,801 × 22
   `Project Name`      `Transacted Price ($)` `Area (SQFT)` `Unit Price ($ PSF)`
   <chr>                                <dbl>         <dbl>                <dbl>
 1 THE REEF AT KING'S…                2317000          883.                 2625
 2 URBAN TREASURES                    1823500          883.                 2066
 3 NORTH GAIA                         1421112         1076.                 1320
 4 NORTH GAIA                         1258112         1033.                 1218
 5 PARC BOTANNIA                      1280000          872.                 1468
 6 NANYANG PARK                       5870000         3323.                 1767
 7 PALMS @ SIXTH AVEN…                4950000         4521.                 1095
 8 N.A.                               3260000         1555.                 2096
 9 WHISTLER GRAND                      850000          441.                 1926
10 NORTHOAKS                          1268000         1604.                  791
# ℹ 26,791 more rows
# ℹ 18 more variables: `Sale Date` <chr>, Address <chr>, `Type of Sale` <chr>,
#   `Type of Area` <chr>, `Area (SQM)` <dbl>, `Unit Price ($ PSM)` <dbl>,
#   `Nett Price($)` <chr>, `Property Type` <chr>, `Number of Units` <dbl>,
#   Tenure <chr>, `Completion Date` <chr>, `Purchaser Address Indicator` <chr>,
#   `Postal Code` <chr>, `Postal District` <chr>, `Postal Sector` <chr>,
#   `Planning Region` <chr>, `Planning Area` <chr>, Quarter <chr>
…
